{
  "System": "Nintendo - Super Nintendo Entertainment System",
  "Core": "clover-canoe-shvc-wr -rom",
  "OriginalFilename": "Spider-Man & Venom - Maximum Carnage (U).smc",
  "OriginalCrc32": 555581596,
  "CustomCoverArt": true
}
