{
  "System": "Nintendo - Super Nintendo Entertainment System",
  "Core": "clover-canoe-shvc-wr -rom",
  "OriginalFilename": "Super Star Wars (Europe) (Rev 1).sfc",
  "OriginalCrc32": 89728702,
  "CustomCoverArt": true
}
