{
  "System": "Nintendo - Super Nintendo Entertainment System",
  "Core": "clover-canoe-shvc-wr -rom",
  "OriginalFilename": "X-Men - Mutant Apocalypse.smc",
  "OriginalCrc32": 4066039590,
  "CustomCoverArt": true
}
