{
  "System": "Nintendo - Super Nintendo Entertainment System",
  "Core": "clover-canoe-shvc-wr -rom",
  "OriginalFilename": "Teenage Mutant Ninja Turtles IV - Turtles in Time.smc",
  "OriginalCrc32": 1357649018,
  "CustomCoverArt": true
}
