{
  "System": "Nintendo - Super Nintendo Entertainment System",
  "Core": "clover-canoe-shvc-wr -rom",
  "OriginalFilename": "Wolfenstein 3D.smc",
  "OriginalCrc32": 1882487590,
  "CustomCoverArt": true
}
