{
  "System": "Nintendo - Super Nintendo Entertainment System",
  "Core": "clover-canoe-shvc-wr -rom",
  "OriginalFilename": "Tiny Toon Adventures - Buster Busts Loose! (Spain).sfc",
  "OriginalCrc32": 4004780044,
  "CustomCoverArt": true
}
